<?xml version="1.0" encoding="UTF-8"?>
<testng-results skipped="0" failed="0" total="11" passed="11">
  <reporter-output>
    <line>
      <![CDATA[STEP1]]>
    </line>
    <line>
      <![CDATA[STEP2]]>
    </line>
    <line>
      <![CDATA[STEP3]]>
    </line>
    <line>
      <![CDATA[STEP4]]>
    </line>
    <line>
      <![CDATA[STEP5]]>
    </line>
    <line>
      <![CDATA[STEP6]]>
    </line>
    <line>
      <![CDATA[STEP7]]>
    </line>
    <line>
      <![CDATA[STEP8]]>
    </line>
    <line>
      <![CDATA[STEP9]]>
    </line>
    <line>
      <![CDATA[STEP10]]>
    </line>
    <line>
      <![CDATA[STEP11]]>
    </line>
    <line>
      <![CDATA[STEP12]]>
    </line>
    <line>
      <![CDATA[STEP13]]>
    </line>
    <line>
      <![CDATA[STEP14]]>
    </line>
    <line>
      <![CDATA[STEP15]]>
    </line>
    <line>
      <![CDATA[STEP16]]>
    </line>
    <line>
      <![CDATA[STEP17]]>
    </line>
    <line>
      <![CDATA[STEP18]]>
    </line>
    <line>
      <![CDATA[STEP19]]>
    </line>
    <line>
      <![CDATA[STEP20]]>
    </line>
    <line>
      <![CDATA[STEP21]]>
    </line>
    <line>
      <![CDATA[STEP22]]>
    </line>
    <line>
      <![CDATA[STEP23]]>
    </line>
    <line>
      <![CDATA[STEP24]]>
    </line>
    <line>
      <![CDATA[STEP25]]>
    </line>
    <line>
      <![CDATA[STEP26]]>
    </line>
    <line>
      <![CDATA[STEP27]]>
    </line>
    <line>
      <![CDATA[STEP28]]>
    </line>
    <line>
      <![CDATA[STEP29]]>
    </line>
    <line>
      <![CDATA[STEP30]]>
    </line>
    <line>
      <![CDATA[STEP31]]>
    </line>
    <line>
      <![CDATA[STEP32]]>
    </line>
    <line>
      <![CDATA[STEP33]]>
    </line>
    <line>
      <![CDATA[STEP34]]>
    </line>
    <line>
      <![CDATA[STEP35]]>
    </line>
    <line>
      <![CDATA[STEP36]]>
    </line>
    <line>
      <![CDATA[STEP37]]>
    </line>
    <line>
      <![CDATA[STEP38]]>
    </line>
  </reporter-output>
  <suite name="Suite" duration-ms="174448" started-at="2019-02-27T11:24:58Z" finished-at="2019-02-27T11:27:53Z">
    <groups>
    </groups>
    <test name="MyTest" duration-ms="174448" started-at="2019-02-27T11:24:58Z" finished-at="2019-02-27T11:27:53Z">
      <class name="smoke.careerview.tests.TC1_LoginToCareerView">
        <test-method status="PASS" signature="loginToCareerView()[pri:1, instance:smoke.careerview.tests.TC1_LoginToCareerView@543788f3]" name="loginToCareerView" duration-ms="58734" started-at="2019-02-27T16:54:59Z" finished-at="2019-02-27T16:55:57Z">
          <reporter-output>
            <line>
              <![CDATA[STEP1]]>
            </line>
            <line>
              <![CDATA[STEP2]]>
            </line>
            <line>
              <![CDATA[STEP3]]>
            </line>
            <line>
              <![CDATA[STEP4]]>
            </line>
            <line>
              <![CDATA[STEP5]]>
            </line>
          </reporter-output>
        </test-method> <!-- loginToCareerView -->
        <test-method status="PASS" signature="checkMyProfilePopup()[pri:2, instance:smoke.careerview.tests.TC1_LoginToCareerView@543788f3]" name="checkMyProfilePopup" duration-ms="6378" started-at="2019-02-27T16:55:57Z" finished-at="2019-02-27T16:56:04Z">
          <reporter-output>
            <line>
              <![CDATA[STEP6]]>
            </line>
            <line>
              <![CDATA[STEP7]]>
            </line>
          </reporter-output>
        </test-method> <!-- checkMyProfilePopup -->
        <test-method status="PASS" signature="updateProfileInfo()[pri:3, instance:smoke.careerview.tests.TC1_LoginToCareerView@543788f3]" name="updateProfileInfo" duration-ms="11748" started-at="2019-02-27T16:56:04Z" finished-at="2019-02-27T16:56:15Z">
          <reporter-output>
            <line>
              <![CDATA[STEP8]]>
            </line>
            <line>
              <![CDATA[STEP9]]>
            </line>
            <line>
              <![CDATA[STEP10]]>
            </line>
            <line>
              <![CDATA[STEP11]]>
            </line>
            <line>
              <![CDATA[STEP12]]>
            </line>
            <line>
              <![CDATA[STEP13]]>
            </line>
            <line>
              <![CDATA[STEP14]]>
            </line>
            <line>
              <![CDATA[STEP15]]>
            </line>
          </reporter-output>
        </test-method> <!-- updateProfileInfo -->
        <test-method status="PASS" signature="verifyLocateMe()[pri:5, instance:smoke.careerview.tests.TC1_LoginToCareerView@543788f3]" name="verifyLocateMe" duration-ms="15395" started-at="2019-02-27T16:56:15Z" finished-at="2019-02-27T16:56:31Z">
          <reporter-output>
            <line>
              <![CDATA[STEP16]]>
            </line>
            <line>
              <![CDATA[STEP17]]>
            </line>
          </reporter-output>
        </test-method> <!-- verifyLocateMe -->
        <test-method status="PASS" signature="navigateFromHeader()[pri:6, instance:smoke.careerview.tests.TC1_LoginToCareerView@543788f3]" name="navigateFromHeader" duration-ms="7287" started-at="2019-02-27T16:56:31Z" finished-at="2019-02-27T16:56:38Z">
          <reporter-output>
            <line>
              <![CDATA[STEP18]]>
            </line>
            <line>
              <![CDATA[STEP19]]>
            </line>
          </reporter-output>
        </test-method> <!-- navigateFromHeader -->
        <test-method status="PASS" signature="verifyCompareFunctionality()[pri:7, instance:smoke.careerview.tests.TC1_LoginToCareerView@543788f3]" name="verifyCompareFunctionality" duration-ms="18116" started-at="2019-02-27T16:56:38Z" finished-at="2019-02-27T16:56:56Z">
          <reporter-output>
            <line>
              <![CDATA[STEP20]]>
            </line>
            <line>
              <![CDATA[STEP21]]>
            </line>
            <line>
              <![CDATA[STEP22]]>
            </line>
            <line>
              <![CDATA[STEP23]]>
            </line>
            <line>
              <![CDATA[STEP24]]>
            </line>
          </reporter-output>
        </test-method> <!-- verifyCompareFunctionality -->
        <test-method status="PASS" signature="navigateToHome()[pri:8, instance:smoke.careerview.tests.TC1_LoginToCareerView@543788f3]" name="navigateToHome" duration-ms="3804" started-at="2019-02-27T16:56:56Z" finished-at="2019-02-27T16:57:00Z">
          <reporter-output>
            <line>
              <![CDATA[STEP25]]>
            </line>
          </reporter-output>
        </test-method> <!-- navigateToHome -->
        <test-method status="PASS" signature="testForRequestAssessment1()[pri:9, instance:smoke.careerview.tests.TC1_LoginToCareerView@543788f3]" name="testForRequestAssessment1" duration-ms="8821" started-at="2019-02-27T16:57:00Z" finished-at="2019-02-27T16:57:09Z">
          <reporter-output>
            <line>
              <![CDATA[STEP26]]>
            </line>
            <line>
              <![CDATA[STEP27]]>
            </line>
          </reporter-output>
        </test-method> <!-- testForRequestAssessment1 -->
        <test-method status="PASS" signature="verifyAnalyticsTabInAdmin()[pri:10, instance:smoke.careerview.tests.TC1_LoginToCareerView@543788f3]" name="verifyAnalyticsTabInAdmin" duration-ms="29492" started-at="2019-02-27T16:57:09Z" finished-at="2019-02-27T16:57:38Z">
          <reporter-output>
            <line>
              <![CDATA[STEP28]]>
            </line>
            <line>
              <![CDATA[STEP29]]>
            </line>
            <line>
              <![CDATA[STEP30]]>
            </line>
            <line>
              <![CDATA[STEP31]]>
            </line>
            <line>
              <![CDATA[STEP32]]>
            </line>
            <line>
              <![CDATA[STEP33]]>
            </line>
            <line>
              <![CDATA[STEP34]]>
            </line>
            <line>
              <![CDATA[STEP35]]>
            </line>
          </reporter-output>
        </test-method> <!-- verifyAnalyticsTabInAdmin -->
        <test-method status="PASS" signature="verifyingImportTab()[pri:11, instance:smoke.careerview.tests.TC1_LoginToCareerView@543788f3]" name="verifyingImportTab" duration-ms="9292" started-at="2019-02-27T16:57:38Z" finished-at="2019-02-27T16:57:48Z">
          <reporter-output>
            <line>
              <![CDATA[STEP36]]>
            </line>
            <line>
              <![CDATA[STEP37]]>
            </line>
          </reporter-output>
        </test-method> <!-- verifyingImportTab -->
        <test-method status="PASS" signature="logoutfromAdminSite()[pri:13, instance:smoke.careerview.tests.TC1_LoginToCareerView@543788f3]" name="logoutfromAdminSite" duration-ms="5248" started-at="2019-02-27T16:57:48Z" finished-at="2019-02-27T16:57:53Z">
          <reporter-output>
            <line>
              <![CDATA[STEP38]]>
            </line>
          </reporter-output>
        </test-method> <!-- logoutfromAdminSite -->
        <test-method status="PASS" signature="killDriver()[pri:0, instance:smoke.careerview.tests.TC1_LoginToCareerView@543788f3]" name="killDriver" is-config="true" duration-ms="755" started-at="2019-02-27T16:57:53Z" finished-at="2019-02-27T16:57:54Z">
          <reporter-output>
          </reporter-output>
        </test-method> <!-- killDriver -->
      </class> <!-- smoke.careerview.tests.TC1_LoginToCareerView -->
    </test> <!-- MyTest -->
  </suite> <!-- Suite -->
</testng-results>
