-------------------------------------------------------------------------------
Test set: TestSuite
-------------------------------------------------------------------------------
Tests run: 5, Failures: 5, Errors: 0, Skipped: 0, Time elapsed: 11.834 sec <<< FAILURE!
HRI_EP(smoke.testcases.HRI_EP.HRI_Verification)  Time elapsed: 0.863 sec  <<< FAILURE!
java.lang.NullPointerException: null
	at smoke.testcases.HRI_EP.HRI_Verification.HRI_EP(HRI_Verification.java:95)

HRI_EP(smoke.testcases.HRI_EP.HRI_Verification)  Time elapsed: 6.092 sec  <<< FAILURE!
java.lang.NullPointerException: null
	at smoke.testcases.HRI_EP.HRI_Verification.HRI_EP(HRI_Verification.java:95)

HRI_EP(smoke.testcases.HRI_EP.HRI_Verification)  Time elapsed: 0.143 sec  <<< FAILURE!
java.lang.NullPointerException: null
	at smoke.testcases.HRI_EP.HRI_Verification.HRI_EP(HRI_Verification.java:95)

HRI_EP(smoke.testcases.HRI_EP.HRI_Verification)  Time elapsed: 0.18 sec  <<< FAILURE!
java.lang.NullPointerException: null
	at smoke.testcases.HRI_EP.HRI_Verification.HRI_EP(HRI_Verification.java:95)

HRI_EP(smoke.testcases.HRI_EP.HRI_Verification)  Time elapsed: 0.054 sec  <<< FAILURE!
java.lang.NullPointerException: null
	at smoke.testcases.HRI_EP.HRI_Verification.HRI_EP(HRI_Verification.java:95)

