C:\Users\kishan-kashyap\Desktop\careers-ctb-ta\src\main\java\ui\smoke\testcases\CompensationLocalizer\CompensationLocalizer_smoke.java
C:\Users\kishan-kashyap\Desktop\careers-ctb-ta\src\main\java\smoke\testcases\HB43x\Login_Verify.java
C:\Users\kishan-kashyap\Desktop\careers-ctb-ta\src\main\java\pages\careerview\ITPage.java
C:\Users\kishan-kashyap\Desktop\careers-ctb-ta\src\main\java\pages\careerview\LogisticsPage.java
C:\Users\kishan-kashyap\Desktop\careers-ctb-ta\src\main\java\pages\pat\CalendarPage.java
C:\Users\kishan-kashyap\Desktop\careers-ctb-ta\src\main\java\pages\careerview\MyProfilePages.java
C:\Users\kishan-kashyap\Desktop\careers-ctb-ta\src\main\java\utilities\SikuliActions.java
C:\Users\kishan-kashyap\Desktop\careers-ctb-ta\src\main\java\servlets\SeleniumGridServlet.java
C:\Users\kishan-kashyap\Desktop\careers-ctb-ta\src\main\java\utilities\MyExtentReports.java
C:\Users\kishan-kashyap\Desktop\careers-ctb-ta\src\main\java\pages\careerview\AdminUsers.java
C:\Users\kishan-kashyap\Desktop\careers-ctb-ta\src\main\java\smoke\testcases\HRI_EP\EP_Verification.java
C:\Users\kishan-kashyap\Desktop\careers-ctb-ta\src\main\java\pages\ics\HomePage.java
C:\Users\kishan-kashyap\Desktop\careers-ctb-ta\src\main\java\servlets\SauceLabServlet.java
C:\Users\kishan-kashyap\Desktop\careers-ctb-ta\src\main\java\pages\GMD\ProxyGroupsPage.java
C:\Users\kishan-kashyap\Desktop\careers-ctb-ta\src\main\java\smoke\testcases\HRI_EP\UI_Verification.java
C:\Users\kishan-kashyap\Desktop\careers-ctb-ta\src\main\java\pages\HB43x\FamilyDataPage.java
C:\Users\kishan-kashyap\Desktop\careers-ctb-ta\src\main\java\pages\HRI_EP\FileConfigPage.java
C:\Users\kishan-kashyap\Desktop\careers-ctb-ta\src\main\java\regression\testcases\HRI_EP\ScheduleTEBatchVerify.java
C:\Users\kishan-kashyap\Desktop\careers-ctb-ta\src\main\java\pages\careerview\HelpPage.java
C:\Users\kishan-kashyap\Desktop\careers-ctb-ta\src\main\java\pages\mobilityportal\HeaderPage.java
C:\Users\kishan-kashyap\Desktop\careers-ctb-ta\src\main\java\pages\pat\HeaderPage.java
C:\Users\kishan-kashyap\Desktop\careers-ctb-ta\src\main\java\regression\testcases\GMD\PromoteGroups_Verification.java
C:\Users\kishan-kashyap\Desktop\careers-ctb-ta\src\main\java\pages\pat\SpendIncPage.java
C:\Users\kishan-kashyap\Desktop\careers-ctb-ta\src\main\java\listeners\InitReports.java
C:\Users\kishan-kashyap\Desktop\careers-ctb-ta\src\main\java\pages\pat\UserManagemntPage.java
C:\Users\kishan-kashyap\Desktop\careers-ctb-ta\src\main\java\services\soap\testcases\TestSOAPWebService.java
C:\Users\kishan-kashyap\Desktop\careers-ctb-ta\src\main\java\pages\careerview\SuperAdmin_LandingPage.java
C:\Users\kishan-kashyap\Desktop\careers-ctb-ta\src\main\java\servlets\SOAPWebServlet.java
C:\Users\kishan-kashyap\Desktop\careers-ctb-ta\src\main\java\utilities\DataReaderMap.java
C:\Users\kishan-kashyap\Desktop\careers-ctb-ta\src\main\java\pages\HB43x\BeneficiariesPage.java
C:\Users\kishan-kashyap\Desktop\careers-ctb-ta\src\main\java\utilities\ExcelReader.java
C:\Users\kishan-kashyap\Desktop\careers-ctb-ta\src\main\java\pages\mobilityportal\MytoolsPage.java
C:\Users\kishan-kashyap\Desktop\careers-ctb-ta\src\main\java\pages\HB43x\HB43x_SubmitPage.java
C:\Users\kishan-kashyap\Desktop\careers-ctb-ta\src\main\java\pages\pat\RoleManagementPage.java
C:\Users\kishan-kashyap\Desktop\careers-ctb-ta\src\main\java\pages\careerview\ComparePopUpPage.java
C:\Users\kishan-kashyap\Desktop\careers-ctb-ta\src\main\java\smoke\testcases\HB43x\LE_Initiate_Verify.java
C:\Users\kishan-kashyap\Desktop\careers-ctb-ta\src\main\java\regression\testcases\GMD\UI_Verification.java
C:\Users\kishan-kashyap\Desktop\careers-ctb-ta\src\main\java\pages\careerview\MyProfileSideMenu.java
C:\Users\kishan-kashyap\Desktop\careers-ctb-ta\src\main\java\regression\testcases\HRI_EP\DCBannerVerify.java
C:\Users\kishan-kashyap\Desktop\careers-ctb-ta\src\main\java\services\rest\testcases\TestGetReq.java
C:\Users\kishan-kashyap\Desktop\careers-ctb-ta\src\main\java\smoke\testcases\HB43x\DepVerify.java
C:\Users\kishan-kashyap\Desktop\careers-ctb-ta\src\main\java\smoke\testcases\HRI_EP\EP_Verification2.java
C:\Users\kishan-kashyap\Desktop\careers-ctb-ta\src\main\java\pages\careerview\AdminPage.java
C:\Users\kishan-kashyap\Desktop\careers-ctb-ta\src\main\java\pages\HRI_EP\Promote_FileConfig.java
C:\Users\kishan-kashyap\Desktop\careers-ctb-ta\src\main\java\pages\HRI_EP\EventTriggerPage.java
C:\Users\kishan-kashyap\Desktop\careers-ctb-ta\src\main\java\pages\CompensationLocalizer_pages\Logout.java
C:\Users\kishan-kashyap\Desktop\careers-ctb-ta\src\main\java\pages\careerview\NavigateHomePage.java
C:\Users\kishan-kashyap\Desktop\careers-ctb-ta\src\main\java\pages\GMD\AddGroupPage.java
C:\Users\kishan-kashyap\Desktop\careers-ctb-ta\src\main\java\pages\HRI_EP\Client_Page.java
C:\Users\kishan-kashyap\Desktop\careers-ctb-ta\src\main\java\pages\pat\ContentManagementPage.java
C:\Users\kishan-kashyap\Desktop\careers-ctb-ta\src\main\java\patchPage\Patchpage.java
C:\Users\kishan-kashyap\Desktop\careers-ctb-ta\src\main\java\utilities\XMLCreator.java
C:\Users\kishan-kashyap\Desktop\careers-ctb-ta\src\main\java\pages\careerview\OrgHeaderPage.java
C:\Users\kishan-kashyap\Desktop\careers-ctb-ta\src\main\java\pages\HB43x\CoveragePage.java
C:\Users\kishan-kashyap\Desktop\careers-ctb-ta\src\main\java\pages\HB43x\LoginPage.java
C:\Users\kishan-kashyap\Desktop\careers-ctb-ta\src\main\java\pages\HB43x\LEChangeVerificationPage.java
C:\Users\kishan-kashyap\Desktop\careers-ctb-ta\src\main\java\pages\HB43x\LEInitiatePage.java
C:\Users\kishan-kashyap\Desktop\careers-ctb-ta\src\main\java\pages\GMD\RunTestPage.java
C:\Users\kishan-kashyap\Desktop\careers-ctb-ta\src\main\java\pages\HRI_EP\MB_SubmitPage.java
C:\Users\kishan-kashyap\Desktop\careers-ctb-ta\src\main\java\smoke\ics\tests\TC1_ICSlogin.java
C:\Users\kishan-kashyap\Desktop\careers-ctb-ta\src\main\java\services\rest\testcases\TestPostReq.java
C:\Users\kishan-kashyap\Desktop\careers-ctb-ta\src\main\java\pages\GMD\ClientHomePage.java
C:\Users\kishan-kashyap\Desktop\careers-ctb-ta\src\main\java\pages\careerview\NavigatePopUpPage.java
C:\Users\kishan-kashyap\Desktop\careers-ctb-ta\src\main\java\pages\HB43x\LandingPage.java
C:\Users\kishan-kashyap\Desktop\careers-ctb-ta\src\main\java\pages\HB43x\DepVerificationPage.java
C:\Users\kishan-kashyap\Desktop\careers-ctb-ta\src\main\java\pages\HRI_EP\Con_BEPage.java
C:\Users\kishan-kashyap\Desktop\careers-ctb-ta\src\main\java\utilities\DataRepository.java
C:\Users\kishan-kashyap\Desktop\careers-ctb-ta\src\main\java\pages\careerview\MarketingPages.java
C:\Users\kishan-kashyap\Desktop\careers-ctb-ta\src\main\java\pages\CompensationLocalizer_pages\Preview.java
C:\Users\kishan-kashyap\Desktop\careers-ctb-ta\src\main\java\pages\careerview\HeaderPage.java
C:\Users\kishan-kashyap\Desktop\careers-ctb-ta\src\main\java\pages\HRI_EP\HomeButtonPage.java
C:\Users\kishan-kashyap\Desktop\careers-ctb-ta\src\main\java\pages\pat\PlatformAdminPage.java
C:\Users\kishan-kashyap\Desktop\careers-ctb-ta\src\main\java\utilities\PDFReader.java
C:\Users\kishan-kashyap\Desktop\careers-ctb-ta\src\main\java\utilities\RetryAnalyzer.java
C:\Users\kishan-kashyap\Desktop\careers-ctb-ta\src\main\java\pages\careerview\SuperAdmin_AddNewClient.java
C:\Users\kishan-kashyap\Desktop\careers-ctb-ta\src\main\java\pages\mobilityportal\LoginPage.java
C:\Users\kishan-kashyap\Desktop\careers-ctb-ta\src\main\java\pages\careerview\OrgHeaderRegPage.java
C:\Users\kishan-kashyap\Desktop\careers-ctb-ta\src\main\java\utilities\InitTests.java
C:\Users\kishan-kashyap\Desktop\careers-ctb-ta\src\main\java\pages\careerview\LoginPage.java
C:\Users\kishan-kashyap\Desktop\careers-ctb-ta\src\main\java\pages\HRI_EP\Adm_HRIPage.java
C:\Users\kishan-kashyap\Desktop\careers-ctb-ta\src\main\java\pages\HRI_EP\ManualBatchPage.java
C:\Users\kishan-kashyap\Desktop\careers-ctb-ta\src\main\java\pages\HRI_EP\ClientHomePage.java
C:\Users\kishan-kashyap\Desktop\careers-ctb-ta\src\main\java\pages\HB43x\PersonalDataPage.java
C:\Users\kishan-kashyap\Desktop\careers-ctb-ta\src\main\java\pages\HRI_EP\DtMPeditPage.java
C:\Users\kishan-kashyap\Desktop\careers-ctb-ta\src\main\java\pages\careerview\ManagerAssessmentPage.java
C:\Users\kishan-kashyap\Desktop\careers-ctb-ta\src\main\java\listeners\RetryListener.java
C:\Users\kishan-kashyap\Desktop\careers-ctb-ta\src\main\java\pages\HRI_EP\OnHoldLEPage.java
C:\Users\kishan-kashyap\Desktop\careers-ctb-ta\src\main\java\listeners\DataTransformer.java
C:\Users\kishan-kashyap\Desktop\careers-ctb-ta\src\main\java\smoke\pat\tests\TC01_verifyLogin.java
C:\Users\kishan-kashyap\Desktop\careers-ctb-ta\src\main\java\pages\HB43x\QuestionairePage.java
C:\Users\kishan-kashyap\Desktop\careers-ctb-ta\src\main\java\pages\HB43x\CongratsPage.java
C:\Users\kishan-kashyap\Desktop\careers-ctb-ta\src\main\java\pages\ics\CompensationTablePage.java
C:\Users\kishan-kashyap\Desktop\careers-ctb-ta\src\main\java\servlets\SmokeServlet.java
C:\Users\kishan-kashyap\Desktop\careers-ctb-ta\src\main\java\smoke\testcases\HRI_EP\HRI_Verification.java
C:\Users\kishan-kashyap\Desktop\careers-ctb-ta\src\main\java\utilities\WebRobot.java
C:\Users\kishan-kashyap\Desktop\careers-ctb-ta\src\main\java\pages\HRI_EP\Con_HRIPage.java
C:\Users\kishan-kashyap\Desktop\careers-ctb-ta\src\main\java\pages\HRI_EP\Promote_TEBPage.java
C:\Users\kishan-kashyap\Desktop\careers-ctb-ta\src\main\java\pages\careerview\ComparePage.java
C:\Users\kishan-kashyap\Desktop\careers-ctb-ta\src\main\java\patchtracker\PatchEntry.java
C:\Users\kishan-kashyap\Desktop\careers-ctb-ta\src\main\java\pages\CompensationLocalizer_pages\Input.java
C:\Users\kishan-kashyap\Desktop\careers-ctb-ta\src\main\java\pages\careerview\AdminHeaderPage.java
C:\Users\kishan-kashyap\Desktop\careers-ctb-ta\src\main\java\pages\careerview\TechnicalCompetencyPage.java
C:\Users\kishan-kashyap\Desktop\careers-ctb-ta\src\main\java\pages\GMD\FeaturesARAPage.java
C:\Users\kishan-kashyap\Desktop\careers-ctb-ta\src\main\java\pages\CompensationLocalizer_pages\Start.java
C:\Users\kishan-kashyap\Desktop\careers-ctb-ta\src\main\java\pages\CompensationLocalizer_pages\MFA.java
C:\Users\kishan-kashyap\Desktop\careers-ctb-ta\src\main\java\servlets\RestAPIServlet.java
C:\Users\kishan-kashyap\Desktop\careers-ctb-ta\src\main\java\verify\SoftAssertions.java
C:\Users\kishan-kashyap\Desktop\careers-ctb-ta\src\main\java\pages\careerview\CoreCompetencyPage.java
C:\Users\kishan-kashyap\Desktop\careers-ctb-ta\src\main\java\listeners\EventListner.java
C:\Users\kishan-kashyap\Desktop\careers-ctb-ta\src\main\java\pages\CompensationLocalizer_pages\Results.java
C:\Users\kishan-kashyap\Desktop\careers-ctb-ta\src\main\java\driverfactory\Driver.java
C:\Users\kishan-kashyap\Desktop\careers-ctb-ta\src\main\java\pages\CompensationLocalizer_pages\Login.java
C:\Users\kishan-kashyap\Desktop\careers-ctb-ta\src\main\java\pages\HB43x\RecalcPage.java
C:\Users\kishan-kashyap\Desktop\careers-ctb-ta\src\main\java\pages\careerview\AdminImportPage.java
C:\Users\kishan-kashyap\Desktop\careers-ctb-ta\src\main\java\servlets\RegressionServlet.java
C:\Users\kishan-kashyap\Desktop\careers-ctb-ta\src\main\java\smoke\careerview\tests\TC1_LoginToCareerView.java
C:\Users\kishan-kashyap\Desktop\careers-ctb-ta\src\main\java\utilities\Controller.java
C:\Users\kishan-kashyap\Desktop\careers-ctb-ta\src\main\java\pages\careerview\StartExploringPages.java
C:\Users\kishan-kashyap\Desktop\careers-ctb-ta\src\main\java\utilities\FileDownloader.java
C:\Users\kishan-kashyap\Desktop\careers-ctb-ta\src\main\java\pages\GMD\Client_Page.java
C:\Users\kishan-kashyap\Desktop\careers-ctb-ta\src\main\java\smoke\testcases\HRI_EP\Promotion_Verification.java
C:\Users\kishan-kashyap\Desktop\careers-ctb-ta\src\main\java\pages\GMD\PromoteGrpPage.java
C:\Users\kishan-kashyap\Desktop\careers-ctb-ta\src\main\java\pages\careerview\HomePage.java
C:\Users\kishan-kashyap\Desktop\careers-ctb-ta\src\main\java\regression\testcases\HRI_EP\OnHoldLEVerify.java
C:\Users\kishan-kashyap\Desktop\careers-ctb-ta\src\main\java\pages\HB43x\HealthPage.java
C:\Users\kishan-kashyap\Desktop\careers-ctb-ta\src\main\java\pages\pat\LicenceAgrMgmtPage.java
C:\Users\kishan-kashyap\Desktop\careers-ctb-ta\src\main\java\pages\mobilityportal\ClientSelectionPage.java
C:\Users\kishan-kashyap\Desktop\careers-ctb-ta\src\main\java\pages\pat\UserTypeMgmtPage.java
C:\Users\kishan-kashyap\Desktop\careers-ctb-ta\src\main\java\pages\HRI_EP\ScheduleTEBatchPage.java
C:\Users\kishan-kashyap\Desktop\careers-ctb-ta\src\main\java\utilities\SOAPUI_Request.java
C:\Users\kishan-kashyap\Desktop\careers-ctb-ta\src\main\java\pages\careerview\LocateMePage.java
C:\Users\kishan-kashyap\Desktop\careers-ctb-ta\src\main\java\pages\careerview\ManagerPage.java
C:\Users\kishan-kashyap\Desktop\careers-ctb-ta\src\main\java\pages\pat\AppStatsPage.java
C:\Users\kishan-kashyap\Desktop\careers-ctb-ta\src\main\java\pages\HRI_EP\Adm_BEPage.java
C:\Users\kishan-kashyap\Desktop\careers-ctb-ta\src\main\java\smoke\testcases\HRI_EP\Publish_Verification.java
C:\Users\kishan-kashyap\Desktop\careers-ctb-ta\src\main\java\pages\careerview\AdminAnalyticsPage.java
C:\Users\kishan-kashyap\Desktop\careers-ctb-ta\src\main\java\pages\GMD\GroupsLink.java
C:\Users\kishan-kashyap\Desktop\careers-ctb-ta\src\main\java\pages\ics\CurrentTablesShowPage.java
C:\Users\kishan-kashyap\Desktop\careers-ctb-ta\src\main\java\pages\careerview\DevelopmentIdeasPages.java
C:\Users\kishan-kashyap\Desktop\careers-ctb-ta\src\main\java\pages\GMD\VisibilityDatePage.java
C:\Users\kishan-kashyap\Desktop\careers-ctb-ta\src\main\java\pages\ics\HeaderPage.java
C:\Users\kishan-kashyap\Desktop\careers-ctb-ta\src\main\java\regression\testcases\GMD\RunTest_Verification.java
C:\Users\kishan-kashyap\Desktop\careers-ctb-ta\src\main\java\pages\careerview\OverviewPage.java
C:\Users\kishan-kashyap\Desktop\careers-ctb-ta\src\main\java\regression\testcases\GMD\AddGroup_Verification.java
C:\Users\kishan-kashyap\Desktop\careers-ctb-ta\src\main\java\utilities\DatabaseUtils.java
C:\Users\kishan-kashyap\Desktop\careers-ctb-ta\src\main\java\utilities\RestAPI.java
C:\Users\kishan-kashyap\Desktop\careers-ctb-ta\src\main\java\pages\careerview\AdminTaskPage.java
C:\Users\kishan-kashyap\Desktop\careers-ctb-ta\src\main\java\utilities\DateUtils.java
C:\Users\kishan-kashyap\Desktop\careers-ctb-ta\src\main\java\pages\careerview\RegisterPage.java
C:\Users\kishan-kashyap\Desktop\careers-ctb-ta\src\main\java\pages\careerview\CompareProcessPopUp.java
C:\Users\kishan-kashyap\Desktop\careers-ctb-ta\src\main\java\smoke\pat\tests\TC02_verifyReport.java
C:\Users\kishan-kashyap\Desktop\careers-ctb-ta\src\main\java\pages\pat\ReleaseManagerPage.java
